<?xml version="1.0" encoding="UTF-8"?>
<svg width="124px" height="20px" viewBox="0 0 124 20" version="1.1" xmlns="http://www.w3.org/2000/svg" xmlns:xlink="http://www.w3.org/1999/xlink">
    <!-- Generator: Sketch 52.4 (67378) - http://www.bohemiancoding.com/sketch -->
    <title>awwward logo</title>
    <desc>Created with Sketch.</desc>
    <g id="Page-1" stroke="none" stroke-width="1" fill="none" fill-rule="evenodd">
        <g id="Single-Case-History" transform="translate(-440.000000, -3534.000000)" fill="#FFFFFF">
            <g id="Group-4" transform="translate(0.000000, 3439.000000)">
                <g id="awwward-logo" transform="translate(440.000000, 95.000000)">
                    <path d="M111.5,11.2 C110.7,10.9 110.2,10.5 110.2,9.9 C110.2,9.1 110.8,8.8 111.5,8.8 C112.3,8.8 113.2,9.2 113.8,10 L115.8,8.1 C115,6.8 113.3,5.9 111.5,5.9 C108.8,5.9 107.1,7.8 107.1,9.9 C107.1,12 108.4,13 109.9,13.6 C111.6,14.3 113.3,14.6 113.3,15.7 C113.3,16.7 112.6,17.2 111.6,17.2 C110.3,17.2 109.3,16.3 108.8,14.9 L106.1,16.3 C106.8,18 108.7,20 111.6,20 C114.6,20 116.5,17.9 116.5,15.4 C116.5,12.4 113.4,11.8 111.5,11.2 Z" id="Path"></path>
                    <path d="M71.8,5.8 C69,5.8 67,7.3 66.6,9.6 L69.5,10.3 C69.9,9 70.9,8.7 71.9,8.7 C73.2,8.7 74.3,9.2 74.3,10.7 L74.3,11.3 L72,11.3 C68.5,11.3 66.2,13.1 66.2,15.8 C66.2,18.5 68,20 70.4,20 C72.4,20 73.7,19.2 74.6,18 L75,19.7 L77.8,19.7 L77.8,11.5 C77.5,7.2 75,5.8 71.8,5.8 Z M74.2,14.3 C74.2,16.1 72.6,17.1 71,17.1 C70,17.1 69.6,16.4 69.6,15.8 C69.6,14.6 70.5,14 71.9,14 L74.2,14 L74.2,14.3 Z" id="Shape" fill-rule="nonzero"></path>
                    <path d="M84,8.3 L84,6 L80.6,6 L80.6,19.7 L84,19.7 L84,14.8 C84,10.4 85.7,8.8 87.7,8.8 C88.3,8.8 88.7,8.9 89.1,9.2 L89.7,6.1 C89.2,5.9 88.6,5.8 88,5.8 C86.5,5.8 84.9,6.7 84,8.3 Z" id="Path"></path>
                    <path d="M100.2,7.3 C99.6,6.5 98.3,5.8 96.9,5.8 C92.8,5.8 90.6,8.7 90.6,12.9 C90.6,17.1 92.7,20 96.9,20 C98.6,20 99.8,19.1 100.2,18.4 L100.2,19.8 L103.6,19.8 L103.6,0.5 L100.2,0.5 L100.2,7.3 Z M97.3,17.1 C95.5,17.1 94.1,15.6 94.1,12.9 C94.1,10.2 95.5,8.7 97.3,8.7 C99.1,8.7 100.5,10.2 100.5,12.9 C100.5,15.6 99.1,17.1 97.3,17.1 Z" id="Shape" fill-rule="nonzero"></path>
                    <path d="M120.9,15.3 C119.6,15.3 118.6,16.3 118.6,17.6 C118.6,18.9 119.6,19.9 120.9,19.9 C122.2,19.9 123.2,18.9 123.2,17.6 C123.2,16.3 122.2,15.3 120.9,15.3 Z" id="Path"></path>
                    <path d="M6,5.8 C3.2,5.8 1.2,7.3 0.8,9.6 L3.7,10.3 C4.1,9 5,8.7 6,8.7 C7.3,8.7 8.4,9.2 8.4,10.7 L8.4,11.3 L6.1,11.3 C2.6,11.3 0.3,13.1 0.3,15.8 C0.3,18.5 2.1,20 4.5,20 C6.5,20 7.8,19.2 8.7,18 L9,19.7 L11.8,19.7 L11.8,11.5 C11.7,7.2 9.2,5.8 6,5.8 Z M8.4,14.3 C8.4,16.1 6.8,17.1 5.2,17.1 C4.2,17.1 3.8,16.4 3.8,15.8 C3.8,14.6 4.7,14 6.1,14 L8.4,14 L8.4,14.3 Z" id="Shape" fill-rule="nonzero"></path>
                    <polygon id="Path" points="29.2 6 26.7 15.5 24.4 6 21.3 6 18.9 15.5 16.5 6 13.1 6 17.5 19.7 20.5 19.7 22.8 10.9 25.2 19.7 28.2 19.7 32.6 6"></polygon>
                    <polygon id="Path" points="45.5 6 43 15.5 40.7 6 37.5 6 35.2 15.5 33.3 10 33.1 10.6 32 14.1 33.8 19.7 36.8 19.7 39.1 10.9 41.5 19.7 44.5 19.7 48.9 6"></polygon>
                    <polygon id="Path" points="59.3 15.5 57 6 53.8 6 51.5 15.5 49.6 10 49.4 10.6 48.3 14.1 50.1 19.7 53.1 19.7 55.4 10.9 57.8 19.7 60.8 19.7 65.2 6 61.8 6"></polygon>
                </g>
            </g>
        </g>
    </g>
</svg>