<?xml version="1.0" encoding="utf-8"?>
<!-- Generator: Adobe Illustrator 21.0.0, SVG Export Plug-In . SVG Version: 6.00 Build 0)  -->
<svg version="1.1" id="Livello_1" xmlns="http://www.w3.org/2000/svg" xmlns:xlink="http://www.w3.org/1999/xlink" x="0px" y="0px"
	 viewBox="0 0 250 74" style="enable-background:new 0 0 250 74;" xml:space="preserve">
<style type="text/css">
	.st0{fill:#3C3C3B;}
</style>
<g>
	<path class="st0" d="M29.4,41.8v16.8c0,3.2,0.6,5.5,1.7,6.8c1.1,1.3,3.4,1.9,6.8,1.9h1.3v5.8H1v-5.8h1.4c3.6,0,5.9-0.7,6.9-2
		c1.1-1.3,1.6-3.5,1.6-6.7V16.7c0-3.2-0.6-5.5-1.7-6.8C8.1,8.6,5.9,8,2.4,8H1V2.2l28.4-0.1l6.4-0.1c6.3,0,10.9,0.2,13.8,0.6
		s5.8,1.4,8.6,3c2.8,1.6,5,3.8,6.7,6.5c1.6,2.8,2.4,5.7,2.4,8.9c0,8.4-4.8,14.2-14.3,17.3c2.5,1.6,6.5,6.6,11.9,15.1
		c4.2,6.5,7.2,10.4,8.9,11.8c1.8,1.3,3.7,2,5.9,2v5.8H57.5c-2-2.4-5.8-8.5-11.2-18.3c-2.8-4.9-4.7-8.1-5.8-9.6
		c-1.1-1.4-2.3-2.3-3.4-2.7C35.9,42.1,33.3,41.8,29.4,41.8z M29.4,35.4c5.9,0.1,9.9-0.3,11.9-1.1c2.1-0.8,3.7-2.2,4.9-4.2
		c1.2-2,1.8-4.8,1.8-8.3c0-5-1.2-8.4-3.5-10.4c-2.4-1.9-6.4-2.9-12.2-2.9c-0.7,0-1.7,0-2.9,0.1V35.4z"/>
	<path class="st0" d="M156.6,65.6c-1.8-1.1-3.8-4.4-6-9.8L128.4,0.9h-6.1l-6.6,16.5l16.9,43.3c0.6,1.4,0.9,2.5,0.9,3.3
		c0,0.9-0.4,1.7-1.2,2.3c-0.8,0.6-2.7,0.9-5.9,0.9v5.8h35.2v-5.8C160,67.3,158.3,66.7,156.6,65.6z"/>
	<path class="st0" d="M245.3,21.3c-2.5-5.1-6-9.2-10.5-12.4c-4.5-3.2-9.4-5.3-14.5-6.2c-5.1-0.9-11.7-1.4-19.9-1.4
		c-4.9,0-11.6,0.2-20.2,0.5l-8.5,0.3v5.8c3.9,0,6.4,0.6,7.5,1.8c1.1,1.2,1.7,3.5,1.7,6.8v42c0,3.5-0.6,5.8-1.8,6.9
		c-1.2,1.2-3.7,1.8-7.4,1.8v5.8h25.5c11.1,0,19-0.3,23.7-1c4.7-0.7,9.3-2.5,13.6-5.4c4.4-2.9,7.9-6.8,10.5-11.8
		c2.6-4.9,3.9-10.5,3.9-16.7C249,32,247.8,26.4,245.3,21.3z M222.9,59.6c-3.3,4.8-8.2,7.2-14.7,7.2c-2.6,0-4.6-0.4-5.9-1.2
		c-1.3-0.8-2.1-1.7-2.4-2.8c-0.3-1.1-0.4-3.2-0.4-6.3V7.7c6.4,0,11.5,0.8,15.3,2.5c3.8,1.6,7,4.7,9.4,9.3c2.4,4.6,3.6,10.7,3.6,18.5
		C227.8,47.6,226.2,54.8,222.9,59.6z"/>
	<rect x="89.7" y="67.3" class="st0" width="23.3" height="5.8"/>
</g>
</svg>
